===== Spiritual Fruit [33-09] =====

{{https://api.unfoldingword.org/obs/jpg/1/en/360px/obs-en-33-09.jpg?nolink}}

“But the **good soil is a person** who hears the **word of God**, **believes** it, and **produces fruit**.”
===== Important Terms: =====

  * **[[:pt-br:obs:notes:key-terms/good|good]]**
  * **[[:pt-br:obs:notes:key-terms/word-of-god|word of God]]**
  * **[[:pt-br:obs:notes:key-terms/believe|believes]]**


===== Translation Notes: =====

  * (Jesus continues to explain the story.)
  * **good soil** - See how you translated this term in **[[:pt-br:obs:notes:frames:33-05|[33-05]]]**.
  * **is a person** - See how you translated this comparison in **[[:pt-br:obs:notes:frames:33-06|[33-06]]]**.
  * **produce fruit** - See how you translated this phrase in **[[:pt-br:obs:notes:frames:33-08|[33-08]]]**.
  * //A Bible story from//  - These references may be slightly different in some Bible translations.


**[[:pt-br:obs:notes:frames:33-08|<<]] | [[:pt-br:obs:notes:33|Up]] | [[:pt-br:obs:notes:frames:34-01|>>]]**
