===== Saul Saw Jesus [46-02] =====

{{https://api.unfoldingword.org/obs/jpg/1/en/360px/obs-en-46-02.jpg?nolink}}

While **Saul** was **on his way** to Damascus, a bright light from heaven shone all around him, and he fell to the ground. Saul heard someone say, “Saul! Saul! Why do you **persecute** me?” Saul asked, “Who are you, **Master**?” Jesus replied to him, “I am Jesus. You are persecuting me!”
===== Important Terms: =====

  * **[[:pt-br:obs:notes:key-terms/paul|Saul]]**
  * **[[:pt-br:obs:notes:key-terms/persecute|persecute]]**
  * **[[:pt-br:obs:notes:key-terms/lord|Master]]**


===== Translation Notes: =====

  * **on his way** - That is, "on his journey."


**[[:pt-br:obs:notes:frames:46-01|<<]] | [[:pt-br:obs:notes:46|Up]] | [[:pt-br:obs:notes:frames:46-03|>>]]**
