===== The Virgin Birth [49-01] =====

{{https://api.unfoldingword.org/obs/jpg/1/en/360px/obs-en-49-01.jpg?nolink}}

An angel told a **virgin** named **Mary** that she would give birth to **God's Son**. So while she was still a virgin, she gave birth to a son and named him **Jesus**. Therefore, Jesus is both God and human.
===== Important Terms: =====

  * **[[:pt-br:obs:notes:key-terms/virgin|virgin]]**
  * **[[:pt-br:obs:notes:key-terms/mary|Mary]]**
  * **[[:pt-br:obs:notes:key-terms/god-son|God's Son]]**
  * **[[:pt-br:obs:notes:key-terms/jesus|Jesus]]**


===== Translation Notes: =====

  * //(There are no notes for this frame.)// 


**[[:pt-br:obs:notes:frames:48-14|<<]] | [[:pt-br:obs:notes:49|Up]] | [[:pt-br:obs:notes:frames:49-02|>>]]**
